^D:\PROJECT\C++_PROJECT\OPENCVTEST\OPENCVTEST\DEBUG\COUNTERMARK.OBJ|D:\PROJECT\C++_PROJECT\OPENCVTEST\OPENCVTEST\DEBUG\EPISODECONFREAD.OBJ|D:\PROJECT\C++_PROJECT\OPENCVTEST\OPENCVTEST\DEBUG\IMAGECAPTURE.OBJ|D:\PROJECT\C++_PROJECT\OPENCVTEST\OPENCVTEST\DEBUG\LOCATEPOSITION.OBJ|D:\PROJECT\C++_PROJECT\OPENCVTEST\OPENCVTEST\DEBUG\MSSIMSTAT.OBJ|D:\PROJECT\C++_PROJECT\OPENCVTEST\OPENCVTEST\DEBUG\OPENCVTEST.OBJ|D:\PROJECT\C++_PROJECT\OPENCVTEST\OPENCVTEST\DEBUG\OPENCVTEST.RES|D:\PROJECT\C++_PROJECT\OPENCVTEST\OPENCVTEST\DEBUG\PROCESSMANAGER.OBJ|D:\PROJECT\C++_PROJECT\OPENCVTEST\OPENCVTEST\DEBUG\STDAFX.OBJ|D:\PROJECT\C++_PROJECT\OPENCVTEST\OPENCVTEST\DEBUG\TINYSTR.OBJ|D:\PROJECT\C++_PROJECT\OPENCVTEST\OPENCVTEST\DEBUG\TINYXML.OBJ|D:\PROJECT\C++_PROJECT\OPENCVTEST\OPENCVTEST\DEBUG\TINYXMLERROR.OBJ|D:\PROJECT\C++_PROJECT\OPENCVTEST\OPENCVTEST\DEBUG\TINYXMLPARSER.OBJ
D:\PROJECT\C++_PROJECT\OPENCVTEST\DEBUG\OPENCVTEST.ILK
D:\PROJECT\C++_PROJECT\OPENCVTEST\DEBUG\OPENCVTEST.EXE
D:\PROJECT\C++_PROJECT\OPENCVTEST\DEBUG\OPENCVTEST.PDB
